PHEindicatormethods DSR function
…
df <- left_join(pops,deaths, by = c("indicator","period","region","ageband")) %>%
  group_by(indicator, period, region)

Check the data meets the function requirements

It is important that your data meets the following criteria in order for the phe_dsr function to work so it is wise to check this before we move on.

1. Each grouping set within your data must contain an equal number of records.

The phe_dsr function has built in error handling to check this requirement, or you can check your data manually using code like this:

# check equal number of records in each grouping set - eyeball check
summarise(df,n=n())
#> # A tibble: 40 x 4
#> # Groups:   indicator, period [?]
#>    indicator period region     n
#>    <fct>      <int> <fct>  <int>
#>  1 Ind1        2012 Area1     19
#>  2 Ind1        2012 Area2     19
#>  3 Ind1        2013 Area1     19
#>  4 Ind1        2013 Area2     19
#>  5 Ind1        2014 Area1     19
#>  6 Ind1        2014 Area2     19
#>  7 Ind1        2015 Area1     19
#>  8 Ind1        2015 Area2     19
#>  9 Ind1        2016 Area1     19
#> 10 Ind1        2016 Area2     19
#> # ... with 30 more rows
…
# the following statement shows that execution of the phe_dsr function on the incorrectly sorted data frame produces different (and incorrect) results.
identical(right,wrong)
#> [1] FALSE

Now lets calculate some DSRs

Now were ready to calculate the DSRs using our correctly ordered df data frame.

By default the function will apply 95% confidence, a 100,000 multiplier and will output just 3 fields against each grouping set - the dsr, the lower confidence limit and the upper confidence limit:

phe_dsr(df, dths, pop)
#> # A tibble: 40 x 6
#> # Groups:   indicator, period [20]
#>    indicator period region value lowercl uppercl
#>    <fct>      <int> <fct>  <dbl>   <dbl>   <dbl>
#>  1 Ind1        2012 Area1    481     455     509
#>  2 Ind1        2012 Area2    661     630     693
#>  3 Ind1        2013 Area1    674     640     709
#>  4 Ind1        2013 Area2    695     661     730
#>  5 Ind1        2014 Area1    658     626     691
#>  6 Ind1        2014 Area2    794     758     832
#>  7 Ind1        2015 Area1    699     666     734
#>  8 Ind1        2015 Area2    694     662     727
#>  9 Ind1        2016 Area1    619     587     652
#> 10 Ind1        2016 Area2    664     632     698
#> # ... with 30 more rows

Alternatively, we can add further arguments to specify:

the level of detail required in the output (type)

the confidence level (confidence)

the multiplier (multiplier)

phe_dsr(df, dths, pop, type = "full", confidence = 99.8, multiplier = 10000)
#> # A tibble: 40 x 11
#> # Groups:   indicator, period [20]
#>    indicator period region total_count total_pop value lowercl uppercl
#>    <fct>      <int> <fct>        <int>     <int> <dbl>   <dbl>   <dbl>
#>  1 Ind1        2012 Area1         1413    299871  48.1    44.0    52.6
#>  2 Ind1        2012 Area2         1997    283176  66.1    61.3    71.2
#>  3 Ind1        2013 Area1         1761    259238  67.4    62.1    73.0
#>  4 Ind1        2013 Area2         1757    265567  69.5    64.2    75.1
#>  5 Ind1        2014 Area1         1728    284343  65.8    60.8    71.1
#>  6 Ind1        2014 Area2         1974    273165  79.4    73.7    85.4
#>  7 Ind1        2015 Area1         1938    285972  69.9    64.8    75.4
#>  8 Ind1        2015 Area2         2047    286499  69.4    64.4    74.6
#>  9 Ind1        2016 Area1         1679    287736  61.9    56.9    67.2
#> 10 Ind1        2016 Area2         1834    284124  66.4    61.4    71.7
#> # ... with 30 more rows, and 3 more variables: confidence <chr>,
#> #   statistic <chr>, method <chr>
…
1. Provide the custom standard population as a vector

In the example below, the 1976 European Standard Population (which has 18 age groups) is provided as a vector and then referenced in the function call. To ensure the function works we must also ensure that our data has been broken down into these same 18 age bands (for the purposes of this example Ive just combined the 85-90 and 90+ age band data into a single 85+ age band from the data.frame we used earlier).

The phe_dsr function can then be executed using a user-defined standard population:

esp1976 <- c(8000,  7000,   7000,   7000,   7000,   7000,   7000,   7000,   7000,   7000,   7000,   6000,   5000,   4000,   3000,   2000,   1000,   1000)

df18 <- df
df18$dths[df18$ageband == 85] <- df18$dths[df18$ageband == 85] + df18$dths[df18$ageband == 90]
df18$pop[df18$ageband == 85]  <- df18$pop[df18$ageband == 85] + df18$pop[df18$ageband == 90]
df18 <- filter(df18,ageband != 90)

phe_dsr(df18,dths,pop,stdpop = esp1976)
#> # A tibble: 40 x 6
#> # Groups:   indicator, period [20]
#>    indicator period region value lowercl uppercl
#>    <fct>      <int> <fct>  <dbl>   <dbl>   <dbl>
#>  1 Ind1        2012 Area1    472     444     501
#>  2 Ind1        2012 Area2    669     636     703
#>  3 Ind1        2013 Area1    610     578     644
#>  4 Ind1        2013 Area2    683     648     719
#>  5 Ind1        2014 Area1    649     616     683
#>  6 Ind1        2014 Area2    846     806     888
#>  7 Ind1        2015 Area1    700     665     737
#>  8 Ind1        2015 Area2    678     646     712
#>  9 Ind1        2016 Area1    609     576     644
#> 10 Ind1        2016 Area2    701     665     738
#> # ... with 30 more rows

2. Append the standard populations to your data frame before executing the function

In the example below, the esp2013 standard population is appended to our data frame prior to calling the phe_dsr function. The field name can then be specified in the function call. If stdpop is specified as a field name we must also tell the function this by specifying stdpoptype = field as below:

df_with_stdpop <- df %>%
    mutate(spop = esp2013)
names(df_with_stdpop)
#> [1] "indicator" "period"    "region"    "ageband"   "pop"       "dths"     
#> [7] "spop"
phe_dsr(df_with_stdpop, dths, pop, stdpop = spop, stdpoptype = "field")
#> # A tibble: 40 x 6
#> # Groups:   indicator, period [20]
#>    indicator period region value lowercl uppercl
#>    <fct>      <int> <fct>  <dbl>   <dbl>   <dbl>
#>  1 Ind1        2012 Area1    481     455     509
#>  2 Ind1        2012 Area2    661     630     693
#>  3 Ind1        2013 Area1    674     640     709
#>  4 Ind1        2013 Area2    695     661     730
#>  5 Ind1        2014 Area1    658     626     691
#>  6 Ind1        2014 Area2    794     758     832
#>  7 Ind1        2015 Area1    699     666     734
#>  8 Ind1        2015 Area2    694     662     727
#>  9 Ind1        2016 Area1    619     587     652
#> 10 Ind1        2016 Area2    664     632     698
#> # ... with 30 more rows
…
